module github.com/lectrotel-energy-monitoring

go 1.12

require (
	github.com/asaskevich/govalidator v0.0.0-20200108200545-475eaeb16496 // indirect
	github.com/badoux/checkmail v0.0.0-20181210160741-9661bd69e9ad
	github.com/dgrijalva/jwt-go v3.2.0+incompatible
	github.com/go-ozzo/ozzo-dbx v1.5.0
	github.com/go-ozzo/ozzo-routing/v2 v2.2.0
	github.com/go-ozzo/ozzo-validation v3.6.0+incompatible
	github.com/go-redis/redis v6.15.7+incompatible
	github.com/jinzhu/gorm v1.9.10
	github.com/joho/godotenv v1.3.0
	github.com/sirupsen/logrus v1.8.1
	github.com/stretchr/testify v1.4.0
	go.mongodb.org/mongo-driver v1.3.2
	golang.org/x/crypto v0.0.0-20200429183012-4b2356b1ed79
	gopkg.in/yaml.v2 v2.2.2
)
